city,year,weekofyear,total_cases
sj,2008,18,35
sj,2008,19,20
sj,2008,20,23
sj,2008,21,34
sj,2008,22,34
sj,2008,23,36
sj,2008,24,32
sj,2008,25,30
sj,2008,26,29
sj,2008,27,25
sj,2008,28,33
sj,2008,29,34
sj,2008,30,32
sj,2008,31,37
sj,2008,32,32
sj,2008,33,26
sj,2008,34,61
sj,2008,35,36
sj,2008,36,53
sj,2008,37,36
sj,2008,38,35
sj,2008,39,37
sj,2008,40,35
sj,2008,41,36
sj,2008,42,34
sj,2008,43,34
sj,2008,44,36
sj,2008,45,34
sj,2008,46,38
sj,2008,47,35
sj,2008,48,35
sj,2008,49,36
sj,2008,50,29
sj,2008,51,36
sj,2008,52,29
sj,2009,1,36
sj,2009,2,23
sj,2009,3,26
sj,2009,4,36
sj,2009,5,34
sj,2009,6,28
sj,2009,7,25
sj,2009,8,27
sj,2009,9,34
sj,2009,10,36
sj,2009,11,27
sj,2009,12,12
sj,2009,13,29
sj,2009,14,21
sj,2009,15,10
sj,2009,16,7
sj,2009,17,22
sj,2009,18,30
sj,2009,19,29
sj,2009,20,36
sj,2009,21,36
sj,2009,22,35
sj,2009,23,29
sj,2009,24,35
sj,2009,25,32
sj,2009,26,37
sj,2009,27,33
sj,2009,28,41
sj,2009,29,35
sj,2009,30,36
sj,2009,31,33
sj,2009,32,35
sj,2009,33,40
sj,2009,34,36
sj,2009,35,38
sj,2009,36,73
sj,2009,37,39
sj,2009,38,55
sj,2009,39,36
sj,2009,40,35
sj,2009,41,35
sj,2009,42,37
sj,2009,43,36
sj,2009,44,34
sj,2009,45,39
sj,2009,46,30
sj,2009,47,36
sj,2009,48,35
sj,2009,49,34
sj,2009,50,28
sj,2009,51,29
sj,2009,52,28
sj,2010,53,36
sj,2010,1,33
sj,2010,2,36
sj,2010,3,36
sj,2010,4,36
sj,2010,5,21
sj,2010,6,23
sj,2010,7,34
sj,2010,8,35
sj,2010,9,36
sj,2010,10,36
sj,2010,11,36
sj,2010,12,34
sj,2010,13,30
sj,2010,14,33
sj,2010,15,18
sj,2010,16,36
sj,2010,17,36
sj,2010,18,34
sj,2010,19,36
sj,2010,20,36
sj,2010,21,36
sj,2010,22,36
sj,2010,23,36
sj,2010,24,32
sj,2010,25,36
sj,2010,26,36
sj,2010,27,36
sj,2010,28,34
sj,2010,29,35
sj,2010,30,35
sj,2010,31,36
sj,2010,32,34
sj,2010,33,36
sj,2010,34,34
sj,2010,35,39
sj,2010,36,38
sj,2010,37,37
sj,2010,38,43
sj,2010,39,34
sj,2010,40,37
sj,2010,41,36
sj,2010,42,36
sj,2010,43,36
sj,2010,44,36
sj,2010,45,36
sj,2010,46,33
sj,2010,47,36
sj,2010,48,36
sj,2010,49,36
sj,2010,50,30
sj,2010,51,35
sj,2011,52,36
sj,2011,1,36
sj,2011,2,36
sj,2011,3,36
sj,2011,4,34
sj,2011,5,30
sj,2011,6,33
sj,2011,7,35
sj,2011,8,36
sj,2011,9,36
sj,2011,10,35
sj,2011,11,33
sj,2011,12,26
sj,2011,13,36
sj,2011,14,35
sj,2011,15,26
sj,2011,16,36
sj,2011,17,30
sj,2011,18,36
sj,2011,19,35
sj,2011,20,36
sj,2011,21,36
sj,2011,22,36
sj,2011,23,36
sj,2011,24,36
sj,2011,25,36
sj,2011,26,36
sj,2011,27,36
sj,2011,28,36
sj,2011,29,36
sj,2011,30,36
sj,2011,31,37
sj,2011,32,36
sj,2011,33,36
sj,2011,34,36
sj,2011,35,36
sj,2011,36,36
sj,2011,37,36
sj,2011,38,37
sj,2011,39,36
sj,2011,40,36
sj,2011,41,36
sj,2011,42,38
sj,2011,43,36
sj,2011,44,36
sj,2011,45,36
sj,2011,46,36
sj,2011,47,36
sj,2011,48,36
sj,2011,49,36
sj,2011,50,36
sj,2011,51,36
sj,2012,52,36
sj,2012,1,34
sj,2012,2,35
sj,2012,3,34
sj,2012,4,35
sj,2012,5,33
sj,2012,6,36
sj,2012,7,35
sj,2012,8,36
sj,2012,9,33
sj,2012,10,36
sj,2012,11,36
sj,2012,12,36
sj,2012,13,36
sj,2012,14,36
sj,2012,15,36
sj,2012,16,36
sj,2012,17,33
sj,2012,18,36
sj,2012,19,36
sj,2012,20,36
sj,2012,21,36
sj,2012,22,36
sj,2012,23,36
sj,2012,24,36
sj,2012,25,36
sj,2012,26,36
sj,2012,27,36
sj,2012,28,36
sj,2012,29,36
sj,2012,30,36
sj,2012,31,36
sj,2012,32,36
sj,2012,33,36
sj,2012,34,37
sj,2012,35,37
sj,2012,36,36
sj,2012,37,36
sj,2012,38,37
sj,2012,39,36
sj,2012,40,36
sj,2012,41,38
sj,2012,42,36
sj,2012,43,36
sj,2012,44,36
sj,2012,45,37
sj,2012,46,36
sj,2012,47,36
sj,2012,48,36
sj,2012,49,36
sj,2012,50,36
sj,2012,51,36
sj,2013,1,36
sj,2013,2,36
sj,2013,3,36
sj,2013,4,35
sj,2013,5,36
sj,2013,6,35
sj,2013,7,34
sj,2013,8,34
sj,2013,9,34
sj,2013,10,36
sj,2013,11,34
sj,2013,12,36
sj,2013,13,36
sj,2013,14,36
sj,2013,15,36
sj,2013,16,35
sj,2013,17,36
iq,2010,26,7
iq,2010,27,8
iq,2010,28,6
iq,2010,29,7
iq,2010,30,8
iq,2010,31,8
iq,2010,32,8
iq,2010,33,8
iq,2010,34,8
iq,2010,35,7
iq,2010,36,8
iq,2010,37,6
iq,2010,38,8
iq,2010,39,8
iq,2010,40,8
iq,2010,41,6
iq,2010,42,8
iq,2010,43,5
iq,2010,44,2
iq,2010,45,8
iq,2010,46,9
iq,2010,47,16
iq,2010,48,8
iq,2010,49,7
iq,2010,50,8
iq,2010,51,8
iq,2011,52,8
iq,2011,1,8
iq,2011,2,8
iq,2011,3,8
iq,2011,4,8
iq,2011,5,9
iq,2011,6,9
iq,2011,7,15
iq,2011,8,10
iq,2011,9,8
iq,2011,10,9
iq,2011,11,7
iq,2011,12,7
iq,2011,13,8
iq,2011,14,6
iq,2011,15,8
iq,2011,16,8
iq,2011,17,8
iq,2011,18,8
iq,2011,19,6
iq,2011,20,8
iq,2011,21,7
iq,2011,22,6
iq,2011,23,8
iq,2011,24,7
iq,2011,25,5
iq,2011,26,7
iq,2011,27,8
iq,2011,28,8
iq,2011,29,8
iq,2011,30,8
iq,2011,31,8
iq,2011,32,7
iq,2011,33,8
iq,2011,34,8
iq,2011,35,8
iq,2011,36,9
iq,2011,37,7
iq,2011,38,7
iq,2011,39,6
iq,2011,40,9
iq,2011,41,12
iq,2011,42,8
iq,2011,43,8
iq,2011,44,8
iq,2011,45,10
iq,2011,46,8
iq,2011,47,4
iq,2011,48,10
iq,2011,49,0
iq,2011,50,8
iq,2011,51,8
iq,2012,52,6
iq,2012,1,8
iq,2012,2,11
iq,2012,3,8
iq,2012,4,8
iq,2012,5,8
iq,2012,6,8
iq,2012,7,8
iq,2012,8,8
iq,2012,9,11
iq,2012,10,8
iq,2012,11,8
iq,2012,12,8
iq,2012,13,8
iq,2012,14,7
iq,2012,15,8
iq,2012,16,8
iq,2012,17,7
iq,2012,18,8
iq,2012,19,7
iq,2012,20,8
iq,2012,21,6
iq,2012,22,8
iq,2012,23,7
iq,2012,24,7
iq,2012,25,8
iq,2012,26,8
iq,2012,27,8
iq,2012,28,8
iq,2012,29,7
iq,2012,30,8
iq,2012,31,6
iq,2012,32,8
iq,2012,33,7
iq,2012,34,7
iq,2012,35,8
iq,2012,36,8
iq,2012,37,8
iq,2012,38,7
iq,2012,39,8
iq,2012,40,8
iq,2012,41,8
iq,2012,42,8
iq,2012,43,8
iq,2012,44,7
iq,2012,45,7
iq,2012,46,8
iq,2012,47,8
iq,2012,48,8
iq,2012,49,7
iq,2012,50,8
iq,2012,51,8
iq,2013,1,8
iq,2013,2,8
iq,2013,3,8
iq,2013,4,9
iq,2013,5,8
iq,2013,6,8
iq,2013,7,8
iq,2013,8,8
iq,2013,9,8
iq,2013,10,8
iq,2013,11,8
iq,2013,12,8
iq,2013,13,8
iq,2013,14,8
iq,2013,15,8
iq,2013,16,8
iq,2013,17,7
iq,2013,18,7
iq,2013,19,7
iq,2013,20,7
iq,2013,21,8
iq,2013,22,8
iq,2013,23,7
iq,2013,24,8
iq,2013,25,8
iq,2013,26,8
